[
  {"message": "<strong>Tip</strong> &rsaquo; There is a 0.3% chance you'll encounter a mythical/pseudo-legendary Pokemon (4-star)."},
  {"message": "<strong>Tip</strong> &rsaquo; There is a 0.1% chance you'll encounter a legendary Pokemon (5-star)."},
  {"message": "<strong>Tip</strong> &rsaquo; You cannot change your team while exploring."},
  {"message": "<strong>Tip</strong> &rsaquo; You can check what Pokemon are roaming around by clicking the dungeon name."},
  {"message": "<strong>Tip</strong> &rsaquo; Roaming Pokemon changes every day so be sure to catch every Pokemon available."},
  {"message": "<strong>Tip</strong> &rsaquo; You will auto leave the dungeon if you RUN from battle, so always check your team and what you're battling."},
  {"message": "<strong>Tip</strong> &rsaquo; PARPG uses the same formula and catch rate from the original games, so be sure to bring a wide variety of Pokeballs."},
  {"message": "<strong>Tip</strong> &rsaquo; Dungeon difficulty does not alter the captured Pokemon level. You will always get a Lv5."},
  {"message": "<strong>Tip</strong> &rsaquo; Dungeon bosses are tough to beat. They have 5-times the max HP of its default counterpart."},
  {"message": "<strong>Tip</strong> &rsaquo; If the switching Pokemon has higher Speed than the opponent, it won't get attacked that same turn."},
  {"message": "<strong>Tip</strong> &rsaquo; Burn (BRN) takes 5% of current HP every turn and lasts 3-5 turns."},
  {"message": "<strong>Tip</strong> &rsaquo; Poison (PSN) takes 2% of max HP every turn and does not wear off until the end of battle."},
  {"message": "<strong>Tip</strong> &rsaquo; Confuse (CNF) has 40% chance the pokemon will attack itself every turn and lasts 3-5 turns."},
  {"message": "<strong>Tip</strong> &rsaquo; Freeze (FRZ) completely prevents the pokemon to do a move and lasts 3-5 turns."},
  {"message": "<strong>Tip</strong> &rsaquo; Paralyze (PAR) has 30% chance to prevent a pokemon do a move and also reduces its Speed by 50%. It lasts 3-5 turns."},
  {"message": "<strong>Tip</strong> &rsaquo; Infatuate (INF) has 50% chance to prevent a pokemon do a move and lasts 3-5 turns."},
  {"message": "<strong>Tip</strong> &rsaquo; Sleep (SLP) completely prevents the pokemon to do a move and lasts 1-6 turns."},
  {"message": "<strong>Tip</strong> &rsaquo; Flinch (STN) completely prevents the pokemon to do a move for 1 turn."},
  {"message": "<strong>Tip</strong> &rsaquo; Earn crystals by releasing Pokemon or acquiring it from dungeon chests."}
]